Getting started with an example dataset • prostateredcap
…
First, load the dplyr package for data handling, and take a look at
the raw
example dataset provided as part of the prostateredcap package.

library(dplyr)

raw_data <- system.file("extdata",
                        "SampleGUPIMPACTDatab_DATA_LABELS_2021-05-26.csv",
                        package = "prostateredcap")

readr::read_csv(file = raw_data) %>% 
  print(max_extra_cols = 0)  # do not print all other columns
#> # A tibble: 28 × 72
#>    `Record ID` `Repeat Instrument` `Repeat Instance` `Birth Date` Race          
#>          <dbl> <chr>                           <dbl> <chr>        <chr>         
#>  1           1 NA                                 NA 02/04/1956   White         
#>  2           1 Sample Data                         1 NA           NA            
#>  3           1 Freeze Data                         1 NA           NA            
#>  4           2 NA                                 NA 02/09/1974   White         
#>  5           2 Sample Data                         1 NA           NA            
#>  6           2 Freeze Data                         1 NA           NA            
#>  7           3 NA                                 NA 01/08/1953   Black or Afri…
#>  8           3 Sample Data                         1 NA           NA            
#>  9           3 Sample Data                         2 NA           NA            
#> 10           3 Freeze Data                         1 NA           NA            
#> # ℹ 18 more rows
…
